<svg xmlns="http://www.w3.org/2000/svg" width="14" height="14" viewBox="0 0 14 14">
    <defs>
        <clipPath id="ibioc2k8ya">
            <path fill="#41a3fe" stroke="#707070" d="M0 0H14V14H0z" transform="translate(1011 402)"/>
        </clipPath>
    </defs>
    <g clip-path="url(#ibioc2k8ya)" transform="translate(-1011 -402)">
        <g>
            <g>
                <path fill="#41a3fe" d="M8.542 7l5.234-5.235a.767.767 0 0 0 0-1.083l-.458-.458a.768.768 0 0 0-1.083 0L7 5.458 1.766.224a.767.767 0 0 0-1.083 0L.224.683a.766.766 0 0 0 0 1.083L5.459 7 .224 12.234a.768.768 0 0 0 0 1.083l.459.459a.767.767 0 0 0 1.083 0L7 8.542l5.234 5.234a.76.76 0 0 0 .541.224.76.76 0 0 0 .541-.224l.459-.459a.768.768 0 0 0 0-1.083z" transform="translate(1011 402)"/>
            </g>
        </g>
    </g>
</svg>
