<svg xmlns="http://www.w3.org/2000/svg" xmlns:xlink="http://www.w3.org/1999/xlink" width="18" height="18" viewBox="0 0 18 18">
  <defs>
    <clipPath id="clip-path">
      <rect id="Прямоугольник_307" data-name="Прямоугольник 307" width="18" height="18" transform="translate(310 1481)" fill="#41a3fe" stroke="#707070" stroke-width="1"/>
    </clipPath>
  </defs>
  <g id="Группа_масок_134" data-name="Группа масок 134" transform="translate(-310 -1481)" clip-path="url(#clip-path)">
    <g id="favourite" transform="translate(310 1481)">
      <path id="Контур_208" data-name="Контур 208" d="M11.924,2.343H10.554A3.582,3.582,0,0,1,9.521,4.476l-4.9,4.9L1.454,6.217A5.751,5.751,0,0,0,6.89,13.843h.859L11.5,17.331V13.843h.428a5.75,5.75,0,0,0,0-11.5ZM7.855,8.829H6.739V7.773H7.855Zm2.287,0H9.027V7.773h1.116Zm2.287,0H11.314V7.773H12.43Z" transform="translate(0.326 0.669)" fill="#41a3fe"/>
      <path id="Контур_209" data-name="Контур 209" d="M9.126,4.425A2.593,2.593,0,1,0,5.459.758l-.517.517L4.426.758A2.593,2.593,0,0,0,.759,4.425L4.943,8.608Z" transform="translate(0 0)" fill="#41a3fe"/>
    </g>
  </g>
</svg>
