<svg xmlns="http://www.w3.org/2000/svg" xmlns:xlink="http://www.w3.org/1999/xlink" width="14" height="14" viewBox="0 0 14 14">
  <defs>
    <clipPath id="clip-path">
      <rect id="Прямоугольник_769" data-name="Прямоугольник 769" width="14" height="14" transform="translate(1453 255)" fill="#fff" stroke="#707070" stroke-width="1"/>
    </clipPath>
  </defs>
  <g id="Группа_масок_359" data-name="Группа масок 359" transform="translate(-1453 -255)" clip-path="url(#clip-path)">
    <g id="edit_1_" data-name="edit (1)" transform="translate(1453 255)">
      <g id="Сгруппировать_367" data-name="Сгруппировать 367">
        <g id="Сгруппировать_366" data-name="Сгруппировать 366">
          <rect id="Прямоугольник_770" data-name="Прямоугольник 770" width="9.28" height="4.903" transform="translate(2.004 8.532) rotate(-45)" fill="#fff"/>
        </g>
      </g>
      <g id="Сгруппировать_369" data-name="Сгруппировать 369">
        <g id="Сгруппировать_368" data-name="Сгруппировать 368">
          <path id="Контур_405" data-name="Контур 405" d="M13.791,2.79,11.23.193a.631.631,0,0,0-.89-.018l-.018.018L9.2,1.319l3.469,3.487L13.791,3.68A.614.614,0,0,0,13.791,2.79Z" fill="#fff"/>
        </g>
      </g>
      <g id="Сгруппировать_371" data-name="Сгруппировать 371">
        <g id="Сгруппировать_370" data-name="Сгруппировать 370">
          <path id="Контур_406" data-name="Контур 406" d="M1.5,9.292.061,13.142a.63.63,0,0,0,.363.817.651.651,0,0,0,.454,0l3.85-1.453Z" fill="#fff"/>
        </g>
      </g>
    </g>
  </g>
</svg>
