<svg xmlns="http://www.w3.org/2000/svg" width="16" height="16" fill="none" viewBox="0 0 16 16">
    <g fill="#2D9549" clip-path="url(#clip0)">
        <path d="M1.153 12.205h11.485c.103 0 .203-.036.281-.101.11-.093 2.627-2.258 2.78-6.93H3.366C3.212 9.415.895 11.409.871 11.429c-.141.12-.193.314-.13.487s.228.29.412.29zM15.275 2.537h-2.197v-.44c0-.246-.194-.44-.44-.44s-.44.194-.44.44v.44H9.973v-.44c0-.246-.194-.44-.44-.44s-.44.194-.44.44v.44H6.897v-.44c0-.246-.194-.44-.44-.44s-.44.194-.44.44v.44H3.82c-.246 0-.44.193-.44.44v1.318h12.335V2.976c0-.246-.193-.44-.44-.44z"/>
        <path d="M13.484 12.777c-.239.2-.538.307-.846.307H3.38v1.319c0 .243.196.44.44.44h11.455c.243 0 .44-.197.44-.44V9.476c-.848 2.079-2.03 3.133-2.231 3.301z"/>
    </g>
    <defs>
        <clipPath id="clip0">
            <path fill="#fff" d="M0 0H15V15H0z" transform="translate(.714 .75)"/>
        </clipPath>
    </defs>
</svg>
