<svg xmlns="http://www.w3.org/2000/svg" width="14" height="14" viewBox="0 0 14 14">
    <defs>
        <clipPath id="clip-path">
            <path id="Прямоугольник_485" fill="#fff" stroke="#707070" d="M0 0H14V14H0z" transform="translate(1631 2712)"/>
        </clipPath>
        <style>
            .cls-3{fill:#fff}
        </style>
    </defs>
    <g id="Группа_масок_215" clip-path="url(#clip-path)" transform="translate(-1631 -2712)">
        <g id="book" transform="translate(1631 2713.261)">
            <path id="Контур_283" d="M12.75 10V0l-.381.032a14.671 14.671 0 0 0-4.447 1.084l-.672.279v9.958l.489-.2a15.262 15.262 0 0 1 4.6-1.119zm0 0" class="cls-3"/>
            <path id="Контур_284" d="M14 1.478h-.75v8.75a.25.25 0 0 1-.229.25l-.64.052q-.277.023-.553.057c-.06.007-.119.017-.178.025-.124.016-.247.033-.37.053-.072.011-.143.025-.215.037-.11.019-.221.038-.331.06l-.227.048c-.1.022-.209.045-.313.07l-.233.058c-.1.025-.2.052-.3.08l-.234.067-.3.091-.232.075-.3.1-.227.083-.1.04H14zm0 0" class="cls-3"/>
            <path id="Контур_285" d="M1.631.032L1.25 0v10l.444.038a15.159 15.159 0 0 1 4.6 1.125l.461.192v-9.96l-.671-.279A14.671 14.671 0 0 0 1.631.032zm0 0" class="cls-3"/>
            <path id="Контур_286" d="M0 1.478v10h5.734l-.093-.036-.216-.079c-.1-.037-.2-.073-.305-.107l-.22-.074q-.152-.05-.305-.094l-.225-.065c-.1-.028-.206-.055-.309-.082-.075-.019-.15-.039-.227-.057-.1-.025-.21-.048-.315-.071l-.225-.048c-.109-.021-.219-.041-.328-.06l-.215-.038c-.121-.019-.242-.035-.363-.052-.061-.008-.122-.018-.183-.025q-.275-.033-.55-.057l-.673-.057a.25.25 0 0 1-.229-.25V1.478zm0 0" class="cls-3"/>
        </g>
    </g>
</svg>
