<svg xmlns="http://www.w3.org/2000/svg" width="14" height="14" viewBox="0 0 14 14">
    <defs>
        <clipPath id="clip-path">
            <path id="Прямоугольник_67" fill="#bfcfd9" stroke="#707070" d="M0 0H14V14H0z"/>
        </clipPath>
        <style>
            .cls-3{fill:#bfcfd9}
        </style>
    </defs>
    <g id="Группа_масок_260" clip-path="url(#clip-path)">
        <g id="like_1_" transform="translate(0 .292)">
            <g id="Сгруппировать_288">
                <g id="Сгруппировать_287">
                    <path id="Контур_346" d="M1.458 13.708A1.46 1.46 0 0 1 0 12.25V7.583a1.46 1.46 0 0 1 1.458-1.458h1.75a1.448 1.448 0 0 1 .875.3v7.288z" class="cls-3" transform="translate(0 -6.125)"/>
                </g>
            </g>
            <g id="Сгруппировать_290" transform="translate(4.667 .583)">
                <g id="Сгруппировать_289">
                    <path id="Контур_347" d="M14 5.1a1.294 1.294 0 0 1-.38.918 1.448 1.448 0 0 1 .373 1.114 1.508 1.508 0 0 1-1.521 1.322h-3.6a8.387 8.387 0 0 1 .464 2.333 2.384 2.384 0 0 1-1.75 2.333 1.835 1.835 0 0 1-1.058-.355.293.293 0 0 1-.109-.228v-1.973l-1.682-3.64-.07-.036V.636A3.822 3.822 0 0 1 6.125.292h5.354A1.342 1.342 0 0 1 12.8 1.311a1.312 1.312 0 0 1-.106.876 1.307 1.307 0 0 1 .584 1.751A1.306 1.306 0 0 1 14 5.1z" class="cls-3" transform="translate(-4.667 -.292)"/>
                </g>
            </g>
        </g>
    </g>
</svg>
