<svg xmlns="http://www.w3.org/2000/svg" width="14" height="14" viewBox="0 0 14 14">
    <defs>
        <clipPath id="820x58h5wa">
            <path fill="#fff" stroke="#707070" d="M0 0H14V14H0z" transform="translate(1543 503)"/>
        </clipPath>
    </defs>
    <g clip-path="url(#820x58h5wa)" transform="translate(-1543 -503)">
        <path fill="#fff" d="M7 0a7 7 0 1 0 7 7 7.008 7.008 0 0 0-7-7zm3.063 7.583h-2.48v2.479a.583.583 0 0 1-1.167 0V7.583H3.938a.583.583 0 0 1 0-1.167h2.479V3.938a.583.583 0 0 1 1.167 0v2.479h2.479a.583.583 0 1 1 0 1.167zm0 0" transform="translate(1543 503)"/>
    </g>
</svg>
