<svg xmlns="http://www.w3.org/2000/svg" width="20" height="20" viewBox="0 0 20 20">
    <defs>
        <clipPath id="poup3n5iza">
            <path fill="#919191" stroke="#707070" d="M0 0H20V20H0z" transform="translate(101 451)"/>
        </clipPath>
    </defs>
    <g clip-path="url(#poup3n5iza)" transform="translate(-101 -451)">
        <g>
            <path fill="#919191" d="M19.91 7.6a1.732 1.732 0 0 0-1.671-1.21h-5l-1.57-4.778A1.731 1.731 0 0 0 10 .4h-.007a1.731 1.731 0 0 0-1.667 1.225L6.8 6.39H1.761A1.758 1.758 0 0 0 .732 9.572l4.076 2.946-1.569 4.764a1.731 1.731 0 0 0 .632 1.968 1.731 1.731 0 0 0 2.067.006l4.083-2.951 4.035 2.946a1.758 1.758 0 0 0 2.71-1.956l-1.532-4.778 4.041-2.951A1.732 1.732 0 0 0 19.91 7.6zm-1.326 1.02l-4.724 3.45 1.79 5.583a.586.586 0 0 1-.9.652l-4.722-3.448-4.773 3.45a.586.586 0 0 1-.9-.658l1.834-5.579-4.771-3.448a.586.586 0 0 1 .343-1.061h5.893l1.788-5.578A.569.569 0 0 1 10 1.576a.568.568 0 0 1 .557.4l1.838 5.583h5.844a.586.586 0 0 1 .345 1.059z" transform="translate(101 451)"/>
        </g>
    </g>
</svg>
