<svg xmlns="http://www.w3.org/2000/svg" width="20" height="20" viewBox="0 0 20 20">
    <defs>
        <clipPath id="clip-path">
            <path id="Прямоугольник_33" fill="#41a3fe" stroke="#707070" d="M0 0H20V20H0z" transform="translate(195 243)"/>
        </clipPath>
        <style>
            .cls-3{fill:#41a3fe}
        </style>
    </defs>
    <g id="Группа_масок_13" clip-path="url(#clip-path)" transform="translate(-195 -243)">
        <g id="shovel" transform="translate(195 243)">
            <path id="Контур_34" d="M2.074 10.586h2.884v1.172h-1.09L3.085 17a2.507 2.507 0 1 0 4.923.028l-.788-5.27H6.13v-1.172h2.885A1.757 1.757 0 0 0 10.6 8.075L6.615.7A1.172 1.172 0 0 0 4.484.673L.468 8.114a1.758 1.758 0 0 0 1.606 2.472z" class="cls-3"/>
            <path id="Контур_35" d="M11.921 8.955A10.558 10.558 0 0 1 13.3 9.1a1.758 1.758 0 0 0 .564-3.47c-.25-.045-.5-.082-.752-.112a.562.562 0 0 1-.44-.665.564.564 0 0 1 .647-.5A15.321 15.321 0 0 1 17.234 5.4 1.757 1.757 0 0 0 18.6 2.159 18.916 18.916 0 0 0 8.1 1.027l3.527 6.489a3.229 3.229 0 0 1 .294 1.439z" class="cls-3"/>
        </g>
    </g>
</svg>
