<svg xmlns="http://www.w3.org/2000/svg" width="20" height="20" viewBox="0 0 20 20">
    <defs>
        <clipPath id="clip-path">
            <path id="Прямоугольник_33" fill="#41a3fe" stroke="#707070" d="M0 0H20V20H0z" transform="translate(195 783)"/>
        </clipPath>
        <style>
            .cls-3{fill:#41a3fe}
        </style>
    </defs>
    <g id="Группа_масок_31" clip-path="url(#clip-path)" transform="translate(-195 -783)">
        <g id="giftbox" transform="translate(195 783)">
            <g id="Сгруппировать_41">
                <g id="Сгруппировать_40">
                    <path id="Контур_111" d="M18.7 3.9h-1.46a2.316 2.316 0 0 0 .355-1.006 2.589 2.589 0 0 0-4.313-2.2l-1.838 1.665a1.954 1.954 0 0 0-2.89 0L6.714.693A2.589 2.589 0 0 0 2.4 2.89a2.316 2.316 0 0 0 .356 1.01H1.3A1.3 1.3 0 0 0 0 5.2v1.956a.652.652 0 0 0 .652.652h18.7A.652.652 0 0 0 20 7.156V5.2a1.3 1.3 0 0 0-1.3-1.3zM8.043 3.678V3.9H4.975a1.284 1.284 0 0 1-.542-2.449 1.255 1.255 0 0 1 1.4.213l2.206 2c.005.001.004.008.004.014zm8.257-.961A1.321 1.321 0 0 1 14.96 3.9h-3v-.222-.023l2.172-1.968a1.3 1.3 0 0 1 1.234-.315 1.269 1.269 0 0 1 .934 1.345z" class="cls-3"/>
                </g>
            </g>
            <g id="Сгруппировать_43">
                <g id="Сгруппировать_42">
                    <path id="Контур_112" d="M1.3 9.113v9.565a1.3 1.3 0 0 0 1.3 1.3h6.1V9.113z" class="cls-3"/>
                </g>
            </g>
            <g id="Сгруппировать_45">
                <g id="Сгруппировать_44">
                    <path id="Контур_113" d="M11.3 9.113v10.87h6.087a1.3 1.3 0 0 0 1.3-1.3v-9.57H11.3z" class="cls-3"/>
                </g>
            </g>
        </g>
    </g>
</svg>
